<?xml version="1.0" standalone="no"?>
<!DOCTYPE svg PUBLIC "-//W3C//DTD SVG 20010904//EN"
 "http://www.w3.org/TR/2001/REC-SVG-20010904/DTD/svg10.dtd">
<svg version="1.0" xmlns="http://www.w3.org/2000/svg"
 width="512.000000pt" height="512.000000pt" viewBox="0 0 512.000000 512.000000"
 preserveAspectRatio="xMidYMid meet">

<g transform="translate(0.000000,512.000000) scale(0.100000,-0.100000)"
fill="#000000" stroke="none">
<path d="M2366 4489 c-89 -10 -152 -25 -256 -62 -311 -109 -557 -325 -715
-628 -89 -172 -91 -174 -260 -204 -266 -48 -470 -149 -648 -324 -133 -129
-222 -268 -312 -486 -48 -116 -65 -197 -65 -313 0 -184 32 -312 131 -521 141
-297 329 -497 573 -612 208 -97 394 -133 464 -90 94 60 96 193 4 240 -20 10
-81 28 -136 40 -181 38 -317 111 -447 241 -197 196 -288 424 -276 693 5 133
32 237 90 352 120 240 337 417 581 475 71 17 297 39 402 40 30 0 32 3 63 90
147 411 385 665 717 766 83 26 102 28 279 28 219 1 272 -9 420 -78 157 -74
279 -188 403 -376 59 -88 165 -293 207 -400 l18 -46 97 4 c122 5 293 -19 407
-58 239 -82 425 -258 523 -497 52 -129 64 -196 64 -348 -1 -163 -19 -248 -84
-383 -48 -100 -83 -153 -157 -233 -139 -149 -291 -232 -506 -275 -135 -26
-182 -68 -174 -153 9 -82 81 -141 173 -141 108 0 378 101 519 195 94 63 227
190 303 291 130 172 242 488 242 681 0 191 -32 325 -120 508 -68 142 -141 246
-245 351 -190 190 -365 277 -727 358 -37 8 -79 23 -93 32 -15 10 -45 54 -70
103 -192 382 -501 635 -870 711 -181 38 -358 48 -519 29z"/>
<path d="M1660 2811 c-85 -18 -141 -70 -160 -152 -15 -63 -8 -175 15 -218 22
-44 87 -88 149 -101 35 -7 324 -10 916 -8 l865 3 48 24 c88 43 126 139 107
272 -11 74 -44 126 -103 160 l-42 24 -880 1 c-484 1 -896 -1 -915 -5z m207
-131 c49 -30 66 -63 60 -116 -12 -106 -131 -149 -206 -73 -60 59 -45 155 29
191 45 23 77 23 117 -2z m1573 -105 l0 -95 -342 2 -343 3 -3 79 c-2 44 -1 85
2 93 4 10 71 13 346 13 l340 0 0 -95z"/>
<path d="M1625 2215 c-53 -19 -111 -82 -125 -136 -16 -57 -7 -192 14 -224 25
-38 58 -66 101 -86 38 -18 84 -19 935 -19 850 0 897 1 935 19 47 22 89 64 105
106 18 46 14 199 -6 240 -22 47 -76 91 -130 104 -29 8 -318 11 -916 11 -726
-1 -880 -3 -913 -15z m245 -121 c106 -63 63 -224 -62 -226 -49 -1 -86 25 -112
76 -16 32 -17 44 -7 76 23 78 112 114 181 74z m1568 -106 l-3 -93 -340 0 -340
0 -3 93 -3 92 346 0 346 0 -3 -92z"/>
<path d="M1655 1641 c-106 -26 -165 -109 -165 -231 1 -109 38 -182 113 -223
l42 -22 900 0 901 0 49 26 c34 17 59 39 78 71 26 42 28 53 28 143 0 75 -5 106
-19 134 -25 48 -85 89 -151 101 -62 12 -1728 12 -1776 1z m216 -134 c45 -30
61 -63 56 -115 -15 -151 -240 -140 -240 12 0 100 103 158 184 103z m1567 -109
l-3 -93 -340 0 -340 0 -3 93 -3 92 346 0 346 0 -3 -92z"/>
<path d="M2410 960 l0 -120 -95 0 -95 0 0 -110 0 -110 328 2 327 3 0 105 0
105 -97 3 -98 3 0 119 0 120 -135 0 -135 0 0 -120z"/>
<path d="M1416 789 c-34 -40 -34 -88 -2 -126 l24 -28 341 -3 341 -3 0 96 0 95
-339 0 -339 0 -26 -31z"/>
<path d="M2980 725 l0 -95 331 0 331 0 29 29 c31 32 38 75 17 114 -24 46 -26
46 -375 47 l-333 0 0 -95z"/>
</g>
</svg>
