<?xml version="1.0" standalone="no"?>
<!DOCTYPE svg PUBLIC "-//W3C//DTD SVG 20010904//EN"
 "http://www.w3.org/TR/2001/REC-SVG-20010904/DTD/svg10.dtd">
<svg version="1.0" xmlns="http://www.w3.org/2000/svg"
 width="500.000000pt" height="501.000000pt" viewBox="0 0 500.000000 341.000000"
 preserveAspectRatio="xMidYMid meet">

<g transform="translate(0.000000,341.000000) scale(0.100000,-0.100000)"
fill="#000000" stroke="none">
<path d="M2065 2580 c-15 -16 -17 -37 -16 -137 2 -92 5 -121 18 -135 15 -17
49 -18 482 -18 406 0 469 2 489 16 21 14 22 22 22 138 0 106 -2 125 -18 139
-17 15 -65 17 -489 17 -454 0 -471 -1 -488 -20z m175 -135 c0 -33 -2 -35 -35
-35 -33 0 -35 2 -35 35 0 33 2 35 35 35 33 0 35 -2 35 -35z m690 0 l0 -35
-285 0 -285 0 0 35 0 35 285 0 285 0 0 -35z"/>
<path d="M2072 2204 c-21 -14 -22 -22 -22 -143 0 -85 4 -131 12 -139 17 -17
969 -17 986 0 8 8 12 54 12 139 0 121 -1 129 -22 143 -20 14 -82 16 -483 16
-401 0 -463 -2 -483 -16z m168 -139 c0 -33 -2 -35 -35 -35 -33 0 -35 2 -35 35
0 33 2 35 35 35 33 0 35 -2 35 -35z m690 0 l0 -35 -285 0 -285 0 0 35 0 35
285 0 285 0 0 -35z"/>
<path d="M2072 1823 c-23 -20 -25 -29 -23 -170 1 -78 5 -105 17 -117 14 -14
72 -16 489 -16 421 0 475 2 490 16 13 13 15 38 13 147 -3 129 -3 132 -28 144
-19 10 -134 13 -481 13 -421 0 -458 -1 -477 -17z m166 -145 c3 -26 1 -28 -32
-28 -33 0 -36 2 -36 31 0 28 2 30 33 27 27 -2 33 -8 35 -30z m692 2 l0 -30
-285 0 -285 0 0 30 0 30 285 0 285 0 0 -30z"/>
<path d="M3000 1110 c0 -11 7 -20 15 -20 8 0 15 9 15 20 0 11 -7 20 -15 20 -8
0 -15 -9 -15 -20z"/>
<path d="M2040 975 c0 -132 6 -165 25 -135 4 6 13 5 24 -2 14 -9 26 -8 49 1
26 11 32 20 37 55 14 92 -35 170 -86 138 -18 -11 -19 -9 -19 38 0 38 -4 50
-15 50 -13 0 -15 -23 -15 -145z m89 21 c18 -22 10 -126 -11 -139 -30 -19 -48
8 -48 72 0 72 28 104 59 67z"/>
<path d="M1557 1073 c4 -16 16 -75 28 -133 16 -78 25 -106 37 -108 20 -4 36
44 45 131 3 31 9 57 13 57 4 0 15 -38 25 -84 20 -96 27 -111 47 -104 13 6 73
256 63 266 -2 3 -10 2 -18 -1 -8 -3 -19 -36 -27 -84 -21 -123 -24 -124 -50
-14 -13 56 -29 101 -35 101 -6 0 -21 -45 -34 -100 -12 -55 -24 -100 -26 -100
-1 0 -11 45 -20 100 -15 85 -21 100 -37 100 -15 0 -17 -5 -11 -27z"/>
<path d="M2300 965 c0 -113 2 -135 15 -135 12 0 15 13 15 60 l0 60 60 0 60 0
0 -60 c0 -47 3 -60 15 -60 13 0 15 22 15 135 0 113 -2 135 -15 135 -12 0 -15
-13 -15 -60 l0 -60 -60 0 -60 0 0 60 c0 47 -3 60 -15 60 -13 0 -15 -22 -15
-135z"/>
<path d="M2900 1060 c0 -11 -7 -20 -15 -20 -8 0 -15 -7 -15 -15 0 -8 7 -15 15
-15 12 0 15 -15 15 -79 0 -84 13 -110 47 -96 16 6 16 8 -4 16 -21 8 -23 15
-23 84 0 60 3 75 15 75 8 0 15 7 15 15 0 8 -7 15 -15 15 -8 0 -15 9 -15 20 0
11 -4 20 -10 20 -5 0 -10 -9 -10 -20z"/>
<path d="M1892 1033 c-33 -13 -57 -134 -34 -169 14 -22 53 -35 82 -29 43 9 47
25 5 18 -41 -7 -65 9 -65 43 0 22 4 24 55 24 47 0 55 3 55 19 0 66 -49 114
-98 94z m52 -39 c13 -34 7 -44 -29 -44 -24 0 -35 5 -35 14 0 29 13 46 35 46
13 0 26 -7 29 -16z"/>
<path d="M2563 1030 c-31 -13 -43 -41 -43 -104 0 -61 13 -81 59 -91 45 -10 89
17 97 60 9 52 -3 101 -33 125 -28 22 -45 24 -80 10z m65 -32 c16 -16 16 -120
0 -136 -21 -21 -58 -14 -68 14 -23 60 -5 134 33 134 13 0 28 -5 35 -12z"/>
<path d="M2732 1029 c-19 -7 -23 -15 -20 -46 3 -33 9 -41 46 -61 33 -19 42
-29 40 -46 -4 -30 -57 -36 -65 -7 -7 28 -25 27 -21 -1 5 -34 49 -46 93 -25 21
10 35 24 35 35 0 20 -39 62 -58 62 -20 0 -52 39 -46 55 8 20 51 19 62 -1 5 -9
18 -14 28 -12 17 3 17 6 -8 31 -28 28 -47 32 -86 16z"/>
<path d="M3000 935 c0 -87 3 -105 15 -105 12 0 15 18 15 105 0 87 -3 105 -15
105 -12 0 -15 -18 -15 -105z"/>
<path d="M3090 935 c0 -84 3 -105 14 -105 11 0 15 20 18 88 4 102 1 122 -18
122 -11 0 -14 -22 -14 -105z"/>
<path d="M3143 1033 c-20 -8 -15 -23 7 -23 27 0 40 -36 40 -116 0 -52 3 -64
16 -64 14 0 15 13 12 91 -2 76 -6 93 -22 105 -20 14 -32 16 -53 7z"/>
<path d="M3295 1015 c-21 -20 -25 -34 -25 -82 0 -64 5 -75 38 -92 16 -9 27 -9
43 -1 28 15 31 9 18 -29 -11 -30 -15 -33 -45 -29 -40 5 -47 -16 -10 -26 32 -8
72 8 85 33 6 11 11 72 11 135 0 96 -3 116 -15 116 -8 0 -15 -7 -15 -16 0 -14
-2 -14 -22 0 -30 21 -35 20 -63 -9z m79 -47 c14 -54 -2 -112 -31 -116 -26 -4
-43 28 -43 78 0 81 57 109 74 38z"/>
</g>
</svg>
